Assignment_1/ex_3_5/WaveForm.vcd
$date
     Sep 13, 2019       15:01:02
$end

$version
 SystemC 2.3.3-Accellera --- Aug 24 2019 18:46:00
$end

$timescale
     1 ns
$end

$scope module SystemC $end
$var wire    1  aaaaa  clk       $end
$var wire    1  aaaab  reset       $end
$var wire    1  aaaac  ready       $end
$var wire    1  aaaad  valid       $end
$var wire    4  aaaae  channel [3:0]  $end
$var wire    2  aaaaf  error [1:0]  $end
$var wire   16  aaaag  data [15:0]  $end
$upscope $end
$enddefinitions  $end

$comment
All initial values are dumped below at time 0 sec = 0 timescale units.
$end

$dumpvars
1aaaaa
0aaaab
1aaaac
1aaaad
b0 aaaae
b0 aaaaf
b0 aaaag
$end

#10
0aaaaa

#20
1aaaaa
0aaaac
0aaaad

#30
0aaaaa

#40
1aaaaa
1aaaac

#50
0aaaaa

#60
1aaaaa

#70
0aaaaa

#80
1aaaaa
1aaaad
b1 aaaag

#90
0aaaaa

#100
1aaaaa
0aaaad

#110
0aaaaa

#120
1aaaaa
1aaaad
b10 aaaag

#130
0aaaaa

#140
1aaaaa
0aaaad

#150
0aaaaa

#160
1aaaaa
1aaaad
b11 aaaag

#170
0aaaaa

#180
1aaaaa
0aaaac
0aaaad

#190
0aaaaa

#200
1aaaaa
1aaaac

#210
0aaaaa

#220
1aaaaa

#230
0aaaaa

#240
1aaaaa
1aaaad
b100 aaaag

#250
0aaaaa

#260
1aaaaa
0aaaad

#270
0aaaaa

#280
1aaaaa
1aaaad
b101 aaaag

#290
0aaaaa

#300
1aaaaa
0aaaad

#310
0aaaaa

#320
1aaaaa
1aaaad
b110 aaaag

#330
0aaaaa

#340
1aaaaa
0aaaac
0aaaad

#350
0aaaaa

#360
1aaaaa
1aaaac

#370
0aaaaa

#380
1aaaaa

#390
0aaaaa

#400
1aaaaa
1aaaad
b111 aaaag

#410
0aaaaa

#420
1aaaaa
0aaaad

#430
0aaaaa

#440
1aaaaa
1aaaad
b1000 aaaag

#450
0aaaaa

#460
1aaaaa
0aaaad

#470
0aaaaa

#480
1aaaaa
1aaaad
b1001 aaaag

