Assignment_1/ex_3_4/WaveForm.vcd
$date
     Sep 16, 2019       13:05:31
$end

$version
 SystemC 2.3.3-Accellera --- Aug 24 2019 18:46:00
$end

$timescale
     1 ns
$end

$scope module SystemC $end
$var wire    1  aaaaa  clk       $end
$var wire    1  aaaab  reset       $end
$var wire    1  aaaac  ready       $end
$var wire    1  aaaad  valid       $end
$var wire    4  aaaae  channel [3:0]  $end
$var wire    2  aaaaf  error [1:0]  $end
$var wire   16  aaaag  data [15:0]  $end
$upscope $end
$enddefinitions  $end

$comment
All initial values are dumped below at time 0 sec = 0 timescale units.
$end

$dumpvars
1aaaaa
0aaaab
1aaaac
1aaaad
b0 aaaae
b0 aaaaf
b0 aaaag
$end

#10
0aaaaa

#20
1aaaaa
0aaaac
b1 aaaag

#30
0aaaaa

#40
1aaaaa
1aaaac
b10 aaaag

#50
0aaaaa

#60
1aaaaa
0aaaad

#70
0aaaaa

#80
1aaaaa
1aaaad
b11 aaaag

#90
0aaaaa

#100
1aaaaa
0aaaac
b100 aaaag

#110
0aaaaa

#120
1aaaaa
1aaaac
b101 aaaag

#130
0aaaaa

#140
1aaaaa
0aaaad

#150
0aaaaa

#160
1aaaaa
1aaaad
b110 aaaag

#170
0aaaaa

#180
1aaaaa
0aaaac
b111 aaaag

